cc9b5c12434644017aea4b04e2d88a8a 6s103.cnf
87011213a5f53bb556d2e43776b67802 6s133.cnf
71c614b6f032a2f12dc38b17980447ad 6s137.cnf
3af2030c8c40427bf22141a6cb78c2c5 6s139.cnf
54348e9192048135db0be22864d20c58 6s153.cnf
354e1fffa4af99470dcb0ad940b8e7bb 6s165.cnf
d87ac44eb97ddcaee2885f6c13e85a3d 6s166.cnf
6d6ea0b1f1ea02616a3d7384af6eed39 6s19.cnf
689a7b68f4b625b382e197fd942984cf 6s20.cnf
f54470bb4dfb69405565690000e6ad0d 6s9.cnf
de7b5a6e3d1bd3b9bba95b9e04a1bea1 beempgsol2b1.cnf
b7d7cc3ee4e6e066c15c34f841c0e961 beempgsol5b1.cnf
221247dd9b625ab6ef104f151f99f450 bob12m04.cnf
6db02f0bedf1a4caeadf2eb6379ba0d8 bob12m06.cnf
0fb2494b397296cc706e5b20d7a79122 bob12s02.cnf
a7bd06f6d475655b73ad1a8f15d9a566 bob12s04.cnf
eef8c1a6df2eb38a7738ccc702be6bda bob12s06.cnf
