b76b603b2636ba69389e1fe5bf99fb14 001.cnf
2c281ba5ae346b38f9af69aff86073a6 002.cnf
2cfe835b784558aaf6f23302ec00e754 003.cnf
0a4128a2f8884f36b2ff69425ba05c37 004.cnf
294c235302a5d86a712124f79e73259b 005.cnf
58373c50fabc01f9f29d280fb428396a 006.cnf
47bd95959bb15bb2714b1a35ce3ac6a8 007.cnf
e5c9348d6dfa41bf497cc3047c44bd87 008.cnf
f0ef151e6d349537aa0543d269ae5b77 009.cnf
219e95d5e052c2ab56e50e1c7c765aa7 010.cnf
