b6cd121b7b446ba5c20477110defc052 prime2209-84.cnf
dbdee5c99db4f2efc8ca0699b8398464 prime2209-85.cnf
890e8a1cecc618ed692e9acd1fd79edd prime2209-92.cnf
84e981de183f4d3f958452be6f23a822 prime2209-96.cnf
