aeee00b058006df18ef300029383e8fc hitag2-8-60-0-0x880693399044612-25-SAT.cnf
b4ee341ad808f2644dcdfb00d944fc03 hitag2-8-60-0-0xa3b8497b8aad6d7-42.cnf
1b81e621ed8f53344c5cf5bcf85cb4de hitag2-8-60-0-0xb2021557d918860-94.cnf
6a5255ba747fda42385aa05246a2e547 hitag2-8-60-0-0xdcdbc8bf368ee73-37.cnf
0ab64eaff80e0a5514ff8980890265d0 hitag2-8-60-0-0xfba1a41b5dfd7f7-52.cnf
