012facf42627e6b0d9846f3749ffa28e 001.cnf
1280a9f0d719c07c22242fa88391b7cf 002.cnf
36d5b47950b45a78bcbfd408b9087079 003.cnf
1ca1d5fc3a28ac1bf8494272931343f7 005.cnf
c5bcaf56da874e81edcd2eb71bf140e0 007.cnf
c3eb13d8aedb9b4ded99ace1c9b7c988 008.cnf
8228934aedd07945fbc1ec78f6634c72 009.cnf
