2f258bcfc52e978fb7f0939c30438e1d shift1add.10997.cnf
1068f7955b589d74b148ab17b45ebfad shift1add.12991.cnf
1425910cdb79f409e844b70623c4f129 shift1add.16979.cnf
019ecf80de7152458ba8343acf5ee631 shift1add.17976.cnf
9f0a409b0a6a457c9955e2badc711fc2 shift1add.19970.cnf
683297598ff63e12f0bde9f73e25f9fb shift1add.22961.cnf
f348dedfe8dccf87d7c896692b85e236 shift1add.23958.cnf
20b09c59e3ee23be4238ae1f43272878 shift1add.26949.cnf
7eca15464de38c4a8519942691263d30 shift1add.28943.cnf
