593ec7cab2dc3a2167fc4ac880a0fe6e unif-k7-r65.0-v50000-c3250000-S1684775775790722294.cnf
db3ae55662861d2009c58792446acb38 unif-k7-r75.0-v50000-c3750000-S7839549454535441058.cnf
824efb023dde3d5dcd21f3602dfb3310 unif-k7-r85.0-v50000-c4250000-S2880308317704385533.cnf
a4f70cbfc0946468c21994a477a702ca unif-k7-r80.0-v50000-c4000000-S6836003914732815018.cnf
1659dbaf06a3e58985c1e52ab5cc9271 unif-k7-r60.0-v50000-c3000000-S7981099657191898263.cnf
ddec12e08ec047e8179dad8e8527c295 unif-k7-r70.0-v50000-c3500000-S8366760535027957472.cnf
