c986c978e4d5b162cf8ae2d5e04859e9 unif-k5-r21.117-v119-c2513-S5682462205951906089.cnf
9a2e817d67a340c8d55d084fa2984805 unif-k5-r21.117-v120-c2534-S4028501707380395669.cnf
de8bfcb22ff4bc1beacc5e7c3f9d8a6d unif-k5-r21.117-v106-c2238-S6828261444839920292.cnf
b68494fd7d734b9f23b9d8752a6cbcef unif-k5-r21.117-v126-c2661-S5311674435222390933.cnf
07510604a2fe9c543b1ea5f8b2297179 unif-k5-r21.117-v107-c2260-S4271652047338023198.cnf
548f6c63bba358e9bd35d11df85cce1f unif-k5-r21.117-v113-c2386-S1210662472973860340.cnf
0ec7ab2cfaffd77331de1108d4c4a678 unif-k5-r21.117-v90-c1901-S7373155193805786945.cnf
b5f607b8b08c5e37bbeb53a89a634a1e unif-k5-r21.117-v92-c1943-S6945898156603100753.cnf
97b8d8de798768c81849786ae0417616 unif-k5-r21.117-v105-c2217-S671428837748852526.cnf
ab28bce7be819ae9c6d72b6a0f934525 unif-k5-r21.117-v116-c2450-S5599744740323658965.cnf
0bacf091721e83d1f567c2beb78e7f3f unif-k5-r21.117-v99-c2091-S7582763278302326488.cnf
f121c6b28974deccc9c08c57bb361773 unif-k5-r21.117-v117-c2471-S4643020969454141125.cnf
38f74ea94c56d67854123e9de34e8bfd unif-k5-r21.117-v98-c2069-S2167635641270510713.cnf
319776a8f8cc9afb9f38d0a6724f6ffa unif-k5-r21.117-v112-c2365-S413464361093195134.cnf
8507d95f378eaa3db0a110708a6b13f8 unif-k5-r21.117-v100-c2112-S5112573442802643902.cnf
70a9474d0507d6eea1488c76d706c805 unif-k5-r21.117-v86-c1816-S628702212537604912.cnf
833775f1ef50ceb628e8efa84855e099 unif-k5-r21.117-v103-c2175-S6862744243670815999.cnf
f95a884da7d8c3bcdef4814fa69f958a unif-k5-r21.117-v96-c2027-S7411348572201194325.cnf
9c17398f763a5b1dc77a2b4ca06dd237 unif-k5-r21.117-v88-c1858-S9209251086077946947.cnf
c28e2a2b814e91173fbe4e949d37a0ce unif-k5-r21.117-v125-c2640-S1112872983693664644.cnf
35b6e65d7ebf9d0be0972448f2c897f5 unif-k5-r21.117-v102-c2154-S4543163374598704237.cnf
a1eb5dc699cdf3b445c421b3897aeef2 unif-k5-r21.117-v110-c2323-S6201005977648490806.cnf
6d6c9252464d69388a969be03e9b0eb8 unif-k5-r21.117-v95-c2006-S2247994504495927657.cnf
8baaf2e6f9ddea326fce1dd923c0dc13 unif-k5-r21.117-v109-c2302-S7886802269943350404.cnf
d6b2975c372056d595f0b8dd7e7ca997 unif-k5-r21.117-v93-c1964-S886780444042799029.cnf
17c517a988def206fcfae1442e9a7d90 unif-k5-r21.117-v123-c2597-S677333175873026864.cnf
dfad3b583a09edc171d212232db3075f unif-k5-r21.117-v115-c2428-S3429065827426782660.cnf
5efb1e9ed1bf219f75ee7e47f3a61363 unif-k5-r21.117-v122-c2576-S6205023525493382227.cnf
b6e97a08ae219e04ef122f7b63ee0d31 unif-k5-r21.117-v89-c1879-S1497240754461858718.cnf
894d76f2dddf85e15b674ab652137513 unif-k5-r21.117-v85-c1795-S3253420343688303855.cnf
