436b183373ca7a49023bf095b563e9b4 toughsat_factoring_1238s.cnf
dc5271205bd368e274f0decd155e683b toughsat_factoring_148s.cnf
32b4c3c2aba66691c0dc23964cdc1ba8 toughsat_factoring_155s.cnf
a985abf689bf63bb9b3a327d335ab7e3 toughsat_factoring_426s.cnf
713d583846c63b962ad768279ec4a87f toughsat_factoring_428s.cnf
b2028131a89950dc9fe9928b873a1507 toughsat_factoring_895s.cnf
94165ea1dd4efa91efa16f14470dd878 toughsat_factoring_958s.cnf
5503cee318a00e66dec5520be83bc536 toughsat_factoring_inf.cnf
