3435b921c4acd15d51fed09386b58888 partial-10-11-s.cnf
d1c031feea2b01bb6670a4d0116bbd23 partial-10-19-s.cnf
cd6cb5ea01688ce5beec6e625055ac90 partial-5-17-s.cnf
e244a296f9644a797dad8a0d16013dcf partial-5-19-s.cnf
