8520866de176665c8e9e9baaa877993c 9vliw_m_9stages_iq3_C1_bug10.cnf
e8136540b3c2a46fda0c0136afb0a405 9vliw_m_9stages_iq3_C1_bug1.cnf
ac9f0a08db1c99432bfb1d046a892d81 9vliw_m_9stages_iq3_C1_bug4.cnf
ecd02c69e30c7eb00aec1121b50e9d05 9vliw_m_9stages_iq3_C1_bug7.cnf
38f3159fddfc095a413b2afec78f1d19 9vliw_m_9stages_iq3_C1_bug8.cnf
90ea7ffb0c4bf9a38b59a628b2a2b091 9vliw_m_9stages_iq3_C1_bug9.cnf
